%YAML 1.1
%TAG !u! tag:unity3d.com,2011:
--- !u!21 &2100000
Material:
  serializedVersion: 6
  m_ObjectHideFlags: 0
  m_CorrespondingSourceObject: {fileID: 0}
  m_PrefabInstance: {fileID: 0}
  m_PrefabAsset: {fileID: 0}
  m_Name: Vehicle_Car_Vans_Bus
  m_Shader: {fileID: 4800000, guid: 63a90426d42b698448966291201d6716, type: 3}
  m_ShaderKeywords: _DETAILSOURCE_SPECULARALPHA _EMISSION _PROJECTION_UVPROJECTION
    _SOURCE_SPECULARALPHA _TRIPLANARSPACEPROJECTION_OBJECTSPACE _USEAOFROMMAINPROPERTIES_ON
    _USEEMISSIONFROMMAINPROPERTIES_ON
  m_LightmapFlags: 1
  m_EnableInstancingVariants: 1
  m_DoubleSidedGI: 0
  m_CustomRenderQueue: -1
  stringTagMap: {}
  disabledShaderPasses: []
  m_SavedProperties:
    serializedVersion: 3
    m_TexEnvs:
    - _BumpMap:
        m_Texture: {fileID: 0}
        m_Scale: {x: 1, y: 1}
        m_Offset: {x: 0, y: 0}
    - _DetailAlbedoMap:
        m_Texture: {fileID: 0}
        m_Scale: {x: 1, y: 1}
        m_Offset: {x: 0, y: 0}
    - _DetailMask:
        m_Texture: {fileID: 0}
        m_Scale: {x: 1, y: 1}
        m_Offset: {x: 0, y: 0}
    - _DetailNormalMap:
        m_Texture: {fileID: 0}
        m_Scale: {x: 1, y: 1}
        m_Offset: {x: 0, y: 0}
    - _DetailSpecGlossMap:
        m_Texture: {fileID: 0}
        m_Scale: {x: 1, y: 1}
        m_Offset: {x: 0, y: 0}
    - _EmissionMap:
        m_Texture: {fileID: 0}
        m_Scale: {x: 1, y: 1}
        m_Offset: {x: 0, y: 0}
    - _MainTex:
        m_Texture: {fileID: 0}
        m_Scale: {x: 1, y: 1}
        m_Offset: {x: 0, y: 0}
    - _MetallicGlossMap:
        m_Texture: {fileID: 0}
        m_Scale: {x: 1, y: 1}
        m_Offset: {x: 0, y: 0}
    - _OcclusionMap:
        m_Texture: {fileID: 0}
        m_Scale: {x: 1, y: 1}
        m_Offset: {x: 0, y: 0}
    - _ParallaxMap:
        m_Texture: {fileID: 0}
        m_Scale: {x: 1, y: 1}
        m_Offset: {x: 0, y: 0}
    - _SpecGlossMap:
        m_Texture: {fileID: 0}
        m_Scale: {x: 1, y: 1}
        m_Offset: {x: 0, y: 0}
    - _texcoord:
        m_Texture: {fileID: 0}
        m_Scale: {x: 1, y: 1}
        m_Offset: {x: 0, y: 0}
    m_Floats:
    - _AoIntensity: 1
    - _BlendMainNormal: 0
    - _BlendmodeOverlay: 0
    - _Brightness: 1
    - _BumpScale: 1
    - _ContrastDetailMap: 0
    - _Cull: 2
    - _Cutoff: 0.5
    - _DetailBrightness: 1
    - _DetailGlossiness: 0.5
    - _DetailNormalMapScale: 1
    - _DetailSaturation: 0
    - _DetailSource: 0
    - _DetailSpecularIntensity: 0.2
    - _DstBlend: 0
    - _EmissionIntensity: 1
    - _EnableDetailMask: 0
    - _GlossMapScale: 1
    - _Glossiness: 0.33
    - _GlossyReflections: 1
    - _IntensityMask: 1
    - _InvertABaseColor: 0
    - _InvertMask: 0
    - _Metallic: 0.59
    - _Mode: 0
    - _OcclusionStrength: 1
    - _Parallax: 0.02
    - _Projection: 0
    - _Saturation: 0
    - _SmoothnessTextureChannel: 0
    - _Source: 0
    - _SpecularHighlights: 1
    - _SpecularIntensity: 0.2
    - _SpreadDetailMap: 0
    - _SrcBlend: 1
    - _TriplanarFalloff: 20
    - _TriplanarSpaceProjection: 0
    - _UVSec: 0
    - _UseAoFromMainProperties: 1
    - _UseEmissionFromMainProperties: 1
    - _VisualizeMask: 0
    - _ZTest: 4
    - _ZWrite: 1
    - __dirty: 1
    m_Colors:
    - _Color: {r: 0.8014706, g: 0.8014706, b: 0.8014706, a: 1}
    - _DetailColor: {r: 1, g: 1, b: 1, a: 0}
    - _DetailSpecularColor: {r: 1, g: 1, b: 1, a: 0}
    - _EmissionColor: {r: 0, g: 0, b: 0, a: 1}
    - _GlobalXYTilingXYZWOffsetXY: {r: 1, g: 1, b: 0, a: 0}
    - _SpecColor: {r: 0, g: 0, b: 0, a: 1}
    - _SpecularColor: {r: 1, g: 1, b: 1, a: 0}
    - _TriplanarXYTilingXYZWOffsetXY: {r: 1, g: 1, b: 0, a: 0}
  m_BuildTextureStacks: []
